Diffusion
200
 0.5000000026621 0.020000000893816157 2.0182035127897148E-10 6.776241843803062E-11 0.02 100000.0 0 0 0
 0.5000000025937064 0.06100000195439784 1.5966625016567835E-10 1.203109625791283E-10 0.02 100000.0 0 0 0
 0.5000000007831085 0.10199999949910228 2.0369294285068415E-10 -1.3028757257278165E-10 0.02 100000.0 0 0 0
 0.5000000000546752 0.1430000000052547 2.0076069104474197E-10 1.9294677644521566E-11 0.02 100000.0 0 0 0
 0.5 0.184 0.0 0.0 0.02 100000.0 0 0 0
 0.5 0.225 0.0 0.0 0.02 100000.0 0 0 0
 0.5000000014071064 0.2659999984837499 1.1485613852368688E-10 -1.237650415419711E-10 0.02 100000.0 0 0 0
 0.5000000011854141 0.307000000649632 1.2547908786625317E-10 3.1706936211413957E-11 0.02 100000.0 0 0 0
 0.500000001835157 0.34800000035813955 2.8596972150299316E-10 6.269206191958233E-11 0.02 100000.0 0 0 0
 0.5000000012536099 0.3889999995181034 2.353893273931401E-10 -9.048533677701707E-11 0.02 100000.0 0 0 0
 0.5000000020778241 0.43000000134272354 1.2736991542168717E-10 8.230849155782531E-11 0.02 100000.0 0 0 0
 0.4999999996426603 0.5690000006762205 -5.2924497611902594E-11 1.0015288084670008E-10 0.02 100000.0 0 0 0
 0.5 0.61 0.0 0.0 0.02 100000.0 0 0 0
 0.5000000026111783 0.6509999986615662 1.77552314902057E-10 -9.100951845864113E-11 0.02 100000.0 0 0 0
 0.5 0.6920000000000001 0.0 0.0 0.02 100000.0 0 0 0
 0.500000001783524 0.7330000001534082 2.7467065156670153E-10 2.3625577606325324E-11 0.02 100000.0 0 0 0
 0.5 0.774 0.0 0.0 0.02 100000.0 0 0 0
 0.5 0.8150000000000001 0.0 0.0 0.02 100000.0 0 0 0
 0.5 0.856 0.0 0.0 0.02 100000.0 0 0 0
 0.5 0.897 0.0 0.0 0.02 100000.0 0 0 0
 0.5000000011298802 0.9379999991433823 1.5643772545129946E-10 -1.1860315168455175E-10 0.02 100000.0 0 0 0
 0.5 0.979 0.0 0.0 0.02 100000.0 0 0 0
 0.3309234871206528 0.39574066737228814 0.012293412800906628 -0.004162986766184226 0.0050 0.0010 201 52 111
 0.3601901423873974 0.19737010486229625 -9.89125377092397E-4 -0.009950961309762581 0.0050 0.0010 3 221 160
 0.12102715732140942 0.6821907698512306 0.016954795176645845 0.0035691158484031354 0.0050 0.0010 77 58 169
 0.016289043424923322 0.211610863179356 0.008260475424096927 0.010568302824281048 0.0050 0.0010 247 238 156
 0.06997282789758447 0.6426831007101101 -6.814194401051198E-4 0.001680336745891164 0.0050 0.0010 82 172 193
 0.22277798934579626 0.4750802450622524 0.0022871541334230053 0.010441095063731847 0.0050 0.0010 118 242 25
 0.18937109319370726 0.8181103726445146 -0.001773921389052059 -0.010895166568305673 0.0050 0.0010 228 214 142
 0.03502557870798658 0.9823344328041831 -0.002570652620679668 -0.005541110897858761 0.0050 0.0010 144 138 32
 0.17087055215499433 0.8613425568305869 0.0038579944614066525 0.0010837512741446518 0.0050 0.0010 104 74 118
 0.1470549982317064 0.508049586371881 0.005779109369590475 2.3980109605770708E-4 0.0050 0.0010 21 44 252
 0.11590694795101104 0.9125081763381735 -0.004121019018760842 -0.009111377626188667 0.0050 0.0010 15 252 184
 0.19394033963309165 0.5299697811649322 0.005094782421817164 0.0037715303302983 0.0050 0.0010 157 31 214
 0.30074272891231063 0.49886411481756077 0.006951334914618058 0.0067205497859552064 0.0050 0.0010 211 0 62
 0.43590572448490267 0.6332774811314741 0.007131894290644748 -0.004531992796004247 0.0050 0.0010 9 71 8
 0.030160331962382717 0.8694412762854494 0.008474220125907686 -0.002211014646777811 0.0050 0.0010 102 157 70
 0.13622160365984606 0.8543482083642681 0.0036546914946979526 -0.0026164321578585883 0.0050 0.0010 158 203 234
 0.05442313222746751 0.27012372238956933 0.01061680855850482 -6.113799305688689E-4 0.0050 0.0010 212 1 118
 0.3658577630297228 0.6633395953003854 0.0035744740721613756 -0.009339332690692953 0.0050 0.0010 114 57 192
 0.33612783147184777 0.045741864089523354 -0.014509185985298628 -0.004456193753760138 0.0050 0.0010 140 231 49
 0.37909619501469943 0.3943633002678409 0.002405566881928301 0.0011382154395371187 0.0050 0.0010 120 87 147
 0.1265253255696646 0.12890303996743976 0.0019169825498189085 -0.005729036154514233 0.0050 0.0010 166 93 98
 0.33855198669190745 0.8495534461827701 -0.003047957371979826 0.009524177437374519 0.0050 0.0010 148 48 196
 0.05476920895815037 0.6457696585494015 0.008021366916158325 4.77235979868144E-4 0.0050 0.0010 0 78 138
 0.17334132061227678 0.5063725596237544 0.001830627607383633 0.008420062779009333 0.0050 0.0010 35 137 208
 0.24080880978722488 0.4448854769176587 0.0014172670098279404 0.0018272758487470914 0.0050 0.0010 118 96 152
 0.3014535589788192 0.0994523866676501 0.01438515248826074 -0.0026381472297540383 0.0050 0.0010 18 55 7
 0.4507238064138517 0.29582436052415384 7.30845926819202E-5 -0.0037715844571775837 0.0050 0.0010 45 209 234
 0.3458539759125114 0.23092752911067557 -1.6727582344845237E-4 -0.0018532280028463817 0.0050 0.0010 125 119 42
 0.1678512169794375 0.4263190984239406 -0.004441761898152241 -0.006665170529103983 0.0050 0.0010 161 123 142
 0.4300174006927672 0.8293613908639591 0.001893830700117599 -0.009819032807730712 0.0050 0.0010 57 214 217
 0.0813619025520635 0.5202955979236668 0.00426134690005773 -0.0053180090940945874 0.0050 0.0010 210 200 109
 0.14721044764931568 0.9464112489297168 -0.0014266031167489328 0.0048113804806277395 0.0050 0.0010 62 63 136
 0.39913668788701984 0.8337800839793377 3.1824293478562894E-4 0.006615298200347475 0.0050 0.0010 5 81 40
 0.02679427551612265 0.22288873211074042 0.010038103502708617 0.006458366616845176 0.0050 0.0010 64 130 236
 0.045724166392658944 0.2806421899437058 -0.008734417855410164 -0.006413043849593316 0.0050 0.0010 27 101 108
 0.3415436650361324 0.7363599340827162 0.00931007100251081 -0.0035639580177989332 0.0050 0.0010 25 207 140
 0.25253477119541456 0.6466857357505873 -0.008703405925023725 -0.009704862984286692 0.0050 0.0010 120 225 11
 0.41858725178284245 0.6694811019439852 0.011374682441443226 -0.012896898037624437 0.0050 0.0010 142 48 165
 0.13456471569612594 0.6931223875317333 -0.0011278517896489227 -0.013787231913711286 0.0050 0.0010 68 165 53
 0.2958007195749605 0.13629979665311318 -0.0013973060779002636 0.0033198378739048135 0.0050 0.0010 5 210 99
 0.06756408333141965 0.877485317319651 -0.01228356076338906 0.0019353952930240802 0.0050 0.0010 3 160 7
 0.31165683189434457 0.10169505348819284 0.007626596650315555 0.008116898651956174 0.0050 0.0010 32 107 129
 0.02283344460919842 0.4734769701328191 0.01005576835451843 -0.0032579448809167515 0.0050 0.0010 83 105 68
 0.09539320305129494 0.28150330274033436 0.01173484498887843 0.010658387263369725 0.0050 0.0010 117 56 36
 0.4436483512025198 0.06686660737524386 0.007906394194758736 -0.002112889498179897 0.0050 0.0010 236 165 17
 0.2041465196117741 0.2474241944071944 -0.012158064735959397 6.830066076269885E-4 0.0050 0.0010 45 77 91
 0.31478460778502326 0.24780557514597132 -0.0038962741297432707 0.009867587120364323 0.0050 0.0010 77 191 246
 0.36442143567502383 0.8989559779106427 2.6489346588199014E-4 -0.009996490956917485 0.0050 0.0010 83 244 106
 0.13290191546018013 0.6724285002820339 -0.0027264550519244986 -0.006306597206288999 0.0050 0.0010 217 217 104
 0.02618838138434807 0.19189383939828558 0.01286781936449721 -0.006040901440604553 0.0050 0.0010 19 234 184
 0.295508414880952 0.734126878635638 0.0023010082799940156 0.010241572943124437 0.0050 0.0010 133 97 127
 0.3563000044455513 0.12932311490449488 -0.003442575546014207 0.0022947453230850283 0.0050 0.0010 50 76 233
 0.45045696624796444 0.4009209177165054 0.007001098096637868 -0.002566217446651689 0.0050 0.0010 31 73 12
 0.4764886754575423 0.1543630835535436 0.003496614599164653 -0.013733817362652941 0.0050 0.0010 172 139 57
 0.42376965284756535 0.12908597598267235 0.010864377257355009 -2.2944047292311476E-4 0.0050 0.0010 238 175 173
 0.39586614512503954 0.39258933972749266 7.669711062273062E-4 -0.009859725458524302 0.0050 0.0010 48 118 31
 0.17834235508518437 0.8697422076682609 -0.0011920105841969975 -0.009928701363580351 0.0050 0.0010 214 121 31
 0.26410565819563164 0.5401155839937246 0.0053887954322285395 -0.008423828333340657 0.0050 0.0010 225 126 163
 0.164306842772557 0.09245665100116512 -8.412765628588018E-4 -0.006388558624995549 0.0050 0.0010 224 103 85
 0.14680658543994268 0.2656337744459954 -0.0074867233745395815 -0.01147407571004804 0.0050 0.0010 170 197 105
 0.27860864174624816 0.43299778249894605 -0.006090172158251723 0.0046537859104372765 0.0050 0.0010 226 218 12
 0.011935929945125679 0.531143903659075 0.01210566323895032 7.275541796191755E-5 0.0050 0.0010 123 120 225
 0.1792134338864913 0.36101609633323894 -0.0025535596669578582 -6.501327035834479E-4 0.0050 0.0010 174 112 135
 0.3098625922270618 0.20205239573212377 0.0020471976803998026 0.009788206253311465 0.0050 0.0010 151 58 36
 0.2788830184200419 0.8943891145391233 0.0074946703237144426 -0.004799198785846924 0.0050 0.0010 162 0 237
 0.23145221838373287 0.08404459763475837 0.0041072025211009895 -0.002804661665867866 0.0050 0.0010 181 154 120
 0.27676091664669156 0.28017919925640894 -0.0014720432123923966 -0.00989106105434849 0.0050 0.0010 52 16 70
 0.23235823315032103 0.23175953855482526 0.007888095201197994 0.007044509083654782 0.0050 0.0010 69 63 97
 0.15740317719651992 0.20201985992405183 0.00853897800543107 -0.009813363352059573 0.0050 0.0010 80 131 114
 0.1202168994161067 0.8425105888742032 0.012101331811195198 -0.0025540115591989308 0.0050 0.0010 81 120 3
 0.4281375281259477 0.30899078818649217 0.002069978759891674 0.009783413920181306 0.0050 0.0010 3 221 70
 0.5787456389261176 0.5390835711501047 0.009932826435547588 -0.001157133405501191 0.0050 0.0010 169 158 49
 0.465473322682069 0.31275778719249275 0.002527550859458775 0.014771351862063839 0.0050 0.0010 6 232 173
 0.08544954234285927 0.5377804308128981 0.011537087336839913 0.003386307498564012 0.0050 0.0010 64 91 45
 0.005964527537367399 0.658080417503203 -0.012129817985074067 -0.0014420388329378728 0.0050 0.0010 244 175 77
 0.04171912675121532 0.7319725712836301 0.01130003700203259 -0.005963316550432035 0.0050 0.0010 87 201 66
 0.155075155702444 0.9288906698484247 -0.011189702697077863 1.5498972243119247E-4 0.0050 0.0010 247 35 68
 0.028244501185155094 0.8528143462096699 6.846960976716182E-5 0.014252866146502844 0.0050 0.0010 50 126 173
 0.25187994933602514 0.35992728086323467 -0.0037521126339125467 0.0069423118038015605 0.0050 0.0010 236 206 238
 0.2413950418581145 0.9271470114792488 0.0025115280818479137 0.009750650841624995 0.0050 0.0010 141 125 27
 0.4265563933691689 0.5425808580265817 -7.740272047077109E-4 -0.011753285101547179 0.0050 0.0010 251 147 52
 0.30560086154650523 0.7612740477965815 -0.006829976461858081 0.005295414610355547 0.0050 0.0010 167 102 176
 0.16080573057631448 0.5367807168439704 0.006548522149720552 0.005270745004081852 0.0050 0.0010 21 89 240
 0.24948398353660473 0.5975867479005081 -0.007588207311034049 0.00651299545560792 0.0050 0.0010 162 48 184
 0.4722532951288345 0.1416733887584997 -0.0105066106304024 0.00391079082625651 0.0050 0.0010 109 172 188
 0.17632992197602115 0.39495428594552207 0.0041134027124788836 0.010545683799929487 0.0050 0.0010 54 102 251
 0.10704000056588776 0.5450279683826267 -7.482921749870303E-4 0.013342336618933673 0.0050 0.0010 83 246 59
 0.41030846888590083 0.35828925577998955 -0.009987633466945834 4.971659144907652E-4 0.0050 0.0010 131 36 221
 0.2535924682366331 0.8290258862876673 -0.002623230724042093 -2.670743353120845E-4 0.0050 0.0010 115 150 74
 0.20685820550365405 0.0753391301481885 0.0024805494949343594 0.0016815655544618084 0.0050 0.0010 9 48 5
 0.0780274511889989 0.8155935349273877 -0.0020353167598824965 -0.008169864142651749 0.0050 0.0010 198 109 52
 0.006543246936960319 0.09088092957129686 -0.002016286454990879 0.0036323061718145557 0.0050 0.0010 118 200 252
 0.057312752206416406 0.7640577214871465 0.0035575421866924062 0.00934579550332147 0.0050 0.0010 28 84 254
 0.021545617713406386 0.7617457046229301 -0.0018489580338880828 -0.008767023242869081 0.0050 0.0010 142 188 2
 0.16498929104342547 0.7494396307158427 0.0022172472445826236 0.006265075697920717 0.0050 0.0010 197 212 103
 0.13367311946724372 0.7708000226331911 -0.005380899659971885 -0.009092281003645253 0.0050 0.0010 251 221 217
 0.398747968961193 0.7504179745695456 -0.004095632713653341 0.006669854563798098 0.0050 0.0010 56 34 34
 0.32168568892429134 0.9284979919334522 0.0028778176336477996 -0.00822915102848734 0.0050 0.0010 170 8 199
 0.3416517207096894 0.08492993893556156 -0.003957873080246503 0.001408807181058882 0.0050 0.0010 136 147 201
 0.20710621679252 0.6109595483602305 0.007829824998350337 0.014439078334281511 0.0050 0.0010 240 50 172
 0.013971219549948947 0.815698600015913 0.0029286422821374882 -0.008203412197864239 0.0050 0.0010 134 218 12
 0.4537193205338409 0.23837475714521597 0.0012837211366047113 -0.011643259887088687 0.0050 0.0010 126 3 31
 0.273030362439516 0.17849085639395657 0.0014540982565572815 0.00772554340028694 0.0050 0.0010 180 76 103
 0.40904973116140964 0.25467688522650245 -0.007409750755686075 -0.004228810334674151 0.0050 0.0010 170 243 202
 0.1672255722396774 0.45867838355836266 -9.724456301754753E-4 0.005038298367922618 0.0050 0.0010 238 76 32
 0.3797095061731521 0.9010891045729524 0.0025350665721399802 0.00616800742939957 0.0050 0.0010 63 173 228
 0.06288258361354532 0.38428853574022875 -0.007469201173191834 -0.003813302762908767 0.0050 0.0010 21 105 14
 0.44050039415034564 0.3074366209583271 -0.0075264704461188775 -0.0030833178423737085 0.0050 0.0010 4 97 68
 0.2422848827023701 0.9485336539080941 0.0023378841498730317 0.01491734079143445 0.0050 0.0010 113 111 80
 0.29335588275607927 0.1953961518006576 0.0031058270850717077 -0.005153884543017564 0.0050 0.0010 68 199 23
 0.46900584811784735 0.2863497886536033 0.009396220846391643 0.0025737831325213633 0.0050 0.0010 91 194 153
 0.1078205270023716 0.3101969349447988 0.0027953808017683046 0.010873429178735206 0.0050 0.0010 234 66 39
 0.2951667262714887 0.1788983459508099 0.007785496631476711 0.008808383485738161 0.0050 0.0010 22 127 218
 0.35207689574603773 0.5637785679436714 0.005402953002318161 -0.008414754830340643 0.0050 0.0010 187 75 133
 0.22880804393750248 0.43657352463539134 -0.012726682943772678 -0.007004287080587472 0.0050 0.0010 40 86 147
 0.12310514594201731 0.6492501123491166 8.245228429610806E-4 -0.013872673881236587 0.0050 0.0010 20 206 152
 0.429769954700502 0.46313016419487807 -0.008805395154452835 0.01223502664531298 0.0050 0.0010 153 247 115
 0.14611415005005854 0.6949551642502578 -0.0055377473898931325 -0.005031916019882288 0.0050 0.0010 28 19 166
 0.36627899957037474 0.22036683328583762 0.006698288695308196 -0.01044871006333659 0.0050 0.0010 216 215 117
 0.35852535404425584 0.11335175514237952 -0.002691209715745991 -0.0028490112848455944 0.0050 0.0010 245 186 213
 0.18594679321609378 0.08557385311610734 -0.0021273715476102426 0.007642761621056033 0.0050 0.0010 114 95 171
 0.10656353403401733 0.6522384533357624 0.01574345779656584 0.0014041592891894375 0.0050 0.0010 169 12 128
 0.2451269635160957 0.5449056748126998 -0.0027367934379590123 0.003057104963960058 0.0050 0.0010 28 56 89
 0.3830582356527051 0.13828061822102916 -0.010422013935816491 0.0020952200867965873 0.0050 0.0010 113 189 229
 0.440986448360452 0.19015128413868881 0.0025258538882805825 0.013108714073974282 0.0050 0.0010 242 202 65
 0.2379203953193622 0.7352976174254957 0.009195891969613236 0.015330228447896482 0.0050 0.0010 228 6 110
 0.259586995063949 0.38531407724342975 0.00505278765557341 -0.006343672767714147 0.0050 0.0010 55 8 221
 0.10243854896703634 0.4580881148416403 -0.009473052392674045 -0.003203323019249316 0.0050 0.0010 170 126 130
 0.06439903825616429 0.6135516726208836 0.004358823792719435 0.008603777186900577 0.0050 0.0010 98 227 58
 0.06119482560673214 0.1860339297741465 0.005122081701678275 0.008588613336350205 0.0050 0.0010 8 192 203
 0.03273878990478319 0.15386528030301977 -0.01049326646879464 0.002059789183644179 0.0050 0.0010 213 229 252
 0.0877886225306398 0.1194361987838563 -3.734905554989617E-4 -0.00411873001686014 0.0050 0.0010 253 216 68
 0.05376800376716299 0.5597352298525481 0.002317881428755571 0.004738783347685363 0.0050 0.0010 143 22 204
 0.08490991443903988 0.7596602105176034 0.005104485472216127 0.002373141399411277 0.0050 0.0010 14 176 97
 0.05266990230963071 0.8612954049199217 2.999958462319161E-4 -0.008365805902246542 0.0050 0.0010 97 217 11
 0.2420097629803309 0.8072036160411491 0.009773417837082913 -2.0932631610047665E-4 0.0050 0.0010 254 99 1
 0.4557203722377082 0.07858371861796361 0.009408364712315096 -8.63921838350152E-4 0.0050 0.0010 250 113 213
 0.15636360509116157 0.2685771356854989 -0.0016139843344487748 1.7598089778592726E-4 0.0050 0.0010 9 63 187
 0.16320140128823377 0.7287551031105123 0.0017026574213464193 -0.0035209976747016753 0.0050 0.0010 149 188 99
 0.23245810807652711 0.11322770081259596 0.003917176738884235 -0.014939428255683038 0.0050 0.0010 179 173 157
 0.2437329809848423 0.5224676958409078 -0.009097281935178551 0.004152043038297411 0.0050 0.0010 170 128 52
 0.08914611164159797 0.6007782892333627 0.010841300607077014 0.012002680221502724 0.0050 0.0010 210 108 24
 0.06095983659674102 0.49347148159914866 -0.010692779595777229 0.0034653999755788895 0.0050 0.0010 67 106 54
 0.4303924995210225 0.12046835653321246 -0.01090661512068684 -0.006671869491864076 0.0050 0.0010 84 10 106
 0.45196301417626167 0.8153949038119652 0.008998906208896422 -0.009736141579875221 0.0050 0.0010 234 56 128
 0.37522080675661434 0.3664823213105568 -0.0035538197353358492 -0.009347211631750799 0.0050 0.0010 84 102 27
 0.37729868323978416 0.6882022863399216 -0.0021798955885174304 0.003991669900983112 0.0050 0.0010 140 173 192
 0.307918128123296 0.5115611787067265 0.010598969309772076 0.005563626581144687 0.0050 0.0010 232 178 120
 0.38850557734883456 0.6930779730848265 -0.013334689328071775 -0.005818223603835091 0.0050 0.0010 126 209 150
 0.17396336257977515 0.1276609795976823 -0.002757566054560811 -0.008643907246733017 0.0050 0.0010 239 94 185
 0.3520369082656945 0.2581693318400374 -0.0010695631597356812 -1.6467919463492714E-4 0.0050 0.0010 152 104 119
 0.09548245008513577 0.1094154886570209 -0.011869036758834441 -0.009114550953833801 0.0050 0.0010 57 226 254
 0.3287712812212755 0.8992873509192685 0.008800024129173857 -0.0032088775932773246 0.0050 0.0010 127 32 13
 0.415246225153609 0.9849368263253994 -0.008976318744604701 0.004407459352201817 0.0050 0.0010 144 250 89
 0.22153732723299505 0.8713401464147277 0.011304200614217825 0.004522073137258213 0.0050 0.0010 80 131 254
 0.040768935860912216 0.2620201644466181 -0.004721301509173825 0.001048457114969965 0.0050 0.0010 128 241 63
 0.3719751607620825 0.32899928470852463 -0.012816609825978483 -0.006280018747634656 0.0050 0.0010 215 154 35
 0.07930670457532216 0.7352009945095883 0.00867924548097699 -0.006090807518478816 0.0050 0.0010 77 205 82
 0.14121842258015563 0.531153089141461 -6.948882238166408E-4 -0.004650517014944991 0.0050 0.0010 36 224 136
 0.034791419982948144 0.4406694192422009 0.0030158595424967377 -0.0011370539716952996 0.0050 0.0010 94 189 249
 0.040235008565394456 0.8653060393424602 -0.006111122683789695 -0.0013999112512127663 0.0050 0.0010 86 5 171
 0.28437688836341546 0.25685388065561054 -2.646192230243167E-5 0.011086861191627176 0.0050 0.0010 91 210 94
 0.39562696582663764 0.342537776839131 0.0019486883705926153 -0.0026653981700398774 0.0050 0.0010 149 86 211
 0.08669556185833045 0.15559925179205747 -0.007101836468179253 -0.0048320490398969275 0.0050 0.0010 107 122 183
 0.21860228112340013 0.7055299754313606 -0.0012175579821255595 0.006187078662159658 0.0050 0.0010 153 52 102
 0.14865634299677621 0.5511257206952429 2.142712738364104E-6 0.005883158329641411 0.0050 0.0010 93 128 212
 0.08699329902142476 0.8682167625441028 0.008254946515913708 -6.254400345732415E-4 0.0050 0.0010 83 109 86
 0.09790014650085956 0.5203676296824573 -0.009924365136990522 -0.004021275572893184 0.0050 0.0010 207 201 197
 0.3021935029090103 0.07047638925974602 -0.0040553540869136505 -0.0031564074994612007 0.0050 0.0010 133 21 193
 0.20582160487649168 0.5533276405220519 0.0019736988391502036 -0.0038313876612662808 0.0050 0.0010 5 229 191
 0.16121852951391813 0.16845059124277617 -0.0028457446176161382 -0.009586539394969845 0.0050 0.0010 202 106 27
 0.18932942246005613 0.054067364475478136 -0.009751638693477102 -0.002214845997328077 0.0050 0.0010 35 47 234
 0.25547939562117966 0.9883717693182422 -0.004636433658665712 0.003771305649730789 0.0050 0.0010 147 142 34
 0.4451526790521217 0.9018359005144589 0.009185652018385579 -0.002032675036089034 0.0050 0.0010 17 81 17
 0.08008042556857263 0.40841140682752 -0.0028674051394165963 0.005386085472451998 0.0050 0.0010 136 156 148
 0.0879827087624163 0.3059318777744674 0.009758109035577375 9.520648834880699E-4 0.0050 0.0010 168 31 95
 0.11813637460317233 0.885274914661565 0.00776414256981848 0.007598742862110255 0.0050 0.0010 85 133 248
 0.22352795266213296 0.1409128628426878 0.004302325824587173 4.0681589435510304E-4 0.0050 0.0010 154 90 116
